/*********************************************************************
Initial conditions from MADX model of PSB extraction to BT lines
*********************************************************************/

betx0              =       3.5766246991e-01 ;
bety0              =       8.4191591037e+00 ;
alfx0              =       5.2032297972e-01 ;
alfy0              =       4.8700352741e-01 ;
dx0                =      -8.5634276267e-01 ;
dy0                =       4.9176899393e-02 ;
dpx0               =       1.8835273188e-01 ;
dpy0               =      -3.8480979646e-02 ;
x0                 =       0.0000000000e+00 ;
px0                =       0.0000000000e+00 ;
