/*********************************************************************
Initial conditions from MADX model of PSB extraction to BT lines
*********************************************************************/

betx0              =       3.5853530077e-01 ;
bety0              =       8.3897381541e+00 ;
alfx0              =       5.2129135316e-01 ;
alfy0              =       4.8567074575e-01 ;
dx0                =      -9.2781193380e-01 ;
dy0                =       5.0072418149e-02 ;
dpx0               =       2.8426968493e-01 ;
dpy0               =      -3.8040277326e-02 ;
x0                 =       6.7770938243e-04 ;
px0                =       2.5027802517e-03 ;
