/*********************************************************************
Initial conditions from MADX model of PSB extraction to BT lines
*********************************************************************/

betx0              =       5.7868117013e+01 ;
bety0              =       3.2715622329e+01 ;
alfx0              =      -5.9188203475e+00 ;
alfy0              =      -1.6655144796e+00 ;
dx0                =       6.4448125938e-01 ;
dy0                =       6.8143473305e-01 ;
dpx0               =       2.9923352198e-01 ;
dpy0               =       2.7820721927e-02 ;
x0                 =       7.0333916591e-03 ;
px0                =       4.3182307243e-04 ;
