/*********************************************************************************
Initial conditions from MADX stitched model of PS extraction
*********************************************************************************/

betx0              =       1.9133948294e+01 ;
bety0              =       8.1132512713e+00 ;
alfx0              =      -1.5817741099e+00 ;
alfy0              =       9.4404223872e-01 ;
dx0                =       3.0956515583e+00 ;
dy0                =       0.0000000000e+00 ;
dpx0               =       3.5819473786e-01 ;
dpy0               =       0.0000000000e+00 ;
