/*********************************************************************
Initial conditions from MADX model of PSB extraction to BT lines
*********************************************************************/

betx0              =       1.0295285921e+01 ;
bety0              =       1.8309712320e+01 ;
alfx0              =      -2.3707798525e-01 ;
alfy0              =       5.9932105932e-03 ;
dx0                =       2.0433282972e+00 ;
dy0                =      -2.7588177600e-02 ;
dpx0               =       7.8890865510e-02 ;
dpy0               =       2.4195504057e-03 ;
x0                 =       0.0000000000e+00 ;
px0                =       0.0000000000e+00 ;
