/*********************************************************************
Initial conditions from MADX model of PSB extraction to BT lines
*********************************************************************/

betx0              =       6.5490483362e+00 ;
bety0              =       2.7843800972e+01 ;
alfx0              =      -9.4902017446e-02 ;
alfy0              =      -4.3264587128e-01 ;
dx0                =       2.2142416877e+00 ;
dy0                =       6.3577078385e-02 ;
dpx0               =      -2.0829070869e-02 ;
dpy0               =       1.3044553685e-03 ;
x0                 =       0.0000000000e+00 ;
px0                =       0.0000000000e+00 ;
