/*********************************************************************
Initial conditions from MADX model of PSB extraction to BT lines
*********************************************************************/

betx0              =       1.1534686426e+01 ;
bety0              =       2.1466797113e+01 ;
alfx0              =       7.2843114548e-01 ;
alfy0              =       2.0219960499e+00 ;
dx0                =       1.2342245137e+00 ;
dy0                =       1.7444805467e-01 ;
dpx0               =       8.0164123639e-02 ;
dpy0               =       1.1702969905e-02 ;
x0                 =       0.0000000000e+00 ;
px0                =       0.0000000000e+00 ;
