/*********************************************************************
Initial conditions from MADX model of PSB extraction to BT lines
*********************************************************************/

betx0              =       4.6890916962e+01 ;
bety0              =       7.1328786428e+01 ;
alfx0              =      -4.9174199351e+00 ;
alfy0              =      -3.3030591655e+00 ;
dx0                =       4.7355913064e+00 ;
dy0                =       1.1459221185e+00 ;
dpx0               =       5.4932865482e-01 ;
dpy0               =       5.3100860953e-02 ;
x0                 =       0.0000000000e+00 ;
px0                =       0.0000000000e+00 ;
