/*********************************************************************
Initial conditions from MADX model of PSB extraction to BT lines
*********************************************************************/

betx0              =       1.5265891630e+01 ;
bety0              =       2.1631954673e+01 ;
alfx0              =       9.1661057516e-01 ;
alfy0              =       2.0352708384e+00 ;
dx0                =       1.1527015020e+00 ;
dy0                =      -2.7010328405e-02 ;
dpx0               =       7.8722339541e-02 ;
dpy0               =       4.8403714252e-03 ;
x0                 =       0.0000000000e+00 ;
px0                =       0.0000000000e+00 ;
