/*********************************************************************
Initial conditions from MADX model of PSB extraction to BT lines
*********************************************************************/

betx0              =       7.7917008307e+00 ;
bety0              =       5.5129941661e+00 ;
alfx0              =       1.1722810312e+00 ;
alfy0              =       6.9721391223e-01 ;
dx0                =      -3.5763626752e+00 ;
dy0                =       4.0064736218e-01 ;
dpx0               =       1.3791039944e-01 ;
dpy0               =      -6.5623769855e-02 ;
x0                 =       0.0000000000e+00 ;
px0                =       0.0000000000e+00 ;
