/*********************************************************************
Initial conditions from MADX model of ELENA extraction to LNE00
*********************************************************************/

betx0              =   1.28460718139315e+00 ;
bety0              =   3.76358776022176e+00 ;
alfx0              =  -7.05867783529583e-01 ;
alfy0              =   1.80164587267057e+00 ;
dx0                =  -9.81376183232286e+01 ;
dy0                =  -9.06886189644592e-02 ;
dpx0               =   1.10577013150051e+02 ;
dpy0               =   9.94009750596522e-02 ;
x0                 =   0.00000000000000e+00 ;
px0                =   0.00000000000000e+00 ;
