/*********************************************************************
Initial conditions from MADX model of PSB extraction to BT lines
*********************************************************************/

betx0              =       6.7649788829e+00 ;
bety0              =       2.1712451852e+01 ;
alfx0              =       4.3324341523e-01 ;
alfy0              =       6.9240248753e-01 ;
dx0                =       1.6862435996e+00 ;
dy0                =      -5.7003194951e-01 ;
dpx0               =      -1.0431375076e-01 ;
dpy0               =       2.8751251754e-02 ;
x0                 =       0.0000000000e+00 ;
px0                =       0.0000000000e+00 ;
