/*********************************************************************************
Initial conditions from MADX stitched model of PS extraction
*********************************************************************************/

betx0              =       1.5811521546e+01 ;
bety0              =       5.4718876023e+00 ;
alfx0              =      -1.3111234045e+00 ;
alfy0              =       4.4054435031e-01 ;
dx0                =       3.1207879004e+00 ;
dy0                =       0.0000000000e+00 ;
dpx0               =       3.9154159726e-01 ;
dpy0               =       0.0000000000e+00 ;
