/*********************************************************************
Initial conditions from MADX model of PSB extraction to BT lines
*********************************************************************/

betx0              =       8.8975450787e+00 ;
bety0              =       2.0203702573e+01 ;
alfx0              =      -4.7735294631e-02 ;
alfy0              =       5.9337718042e-01 ;
dx0                =       1.9160614103e+00 ;
dy0                =       6.9459490721e-01 ;
dpx0               =      -2.0639844572e-02 ;
dpy0               =      -2.5056334946e-03 ;
x0                 =       0.0000000000e+00 ;
px0                =       0.0000000000e+00 ;
