/*********************************************************************
Initial conditions from MADX model of PSB extraction to BT lines
*********************************************************************/

betx0              =       3.0566105101e+01 ;
bety0              =       4.0462220252e+01 ;
alfx0              =      -2.8347542510e+00 ;
alfy0              =      -3.1419784472e+00 ;
dx0                =      -1.5388122400e+00 ;
dy0                =       7.4543131263e-02 ;
dpx0               =       1.3837710508e-01 ;
dpy0               =       4.9815493766e-03 ;
x0                 =       9.7158090674e-03 ;
px0                =       6.1217303186e-04 ;
