/*********************************************************************************
Initial conditions from MADX stitched model of SPS => sps_tt40_tt41 for q20 optics
*********************************************************************************/

betx0              =         3.21539433e+01 ;
bety0              =         1.04704253e+02 ;
alfx0              =        -6.16272728e-01 ;
alfy0              =         1.87661994e+00 ;
dx0                =        -3.47309001e-01 ;
dy0                =         0.00000000e+00 ;
x0                 =         1.72424145e-02 ;
y0                 =         0.00000000e+00 ;
px0                =        -4.20153824e-06 ;
py0                =         0.00000000e+00 ;
dpx0               =         2.80499304e-03 ;
dpy0               =         0.00000000e+00 ;
