/**********
twiss_start_Q20: beta0, betx=27.77906807,bety=120.39920690,
                        alfx=0.63611880,alfy=-2.70621900,
                        dx=-0.59866300,dpx=0.01603536;
***********/


betx0=27.77906807;
bety0=120.39920690;
alfx0=0.63611880;
alfy0=-2.70621900;
dx0=-0.59866300;
dpx0=0.01603536;
