/*********************************************************************
Initial conditions from MADX model of PSB extraction to BT lines
*********************************************************************/

betx0              =       5.4265899387e+01 ;
bety0              =       3.2333966078e+01 ;
alfx0              =      -5.4869067344e+00 ;
alfy0              =      -1.6471950875e+00 ;
dx0                =       7.7032306955e-01 ;
dy0                =       4.6151180137e-01 ;
dpx0               =       3.1641744657e-01 ;
dpy0               =      -3.5871924829e-03 ;
x0                 =       6.5263628278e-03 ;
px0                =       3.6078304637e-04 ;
