/*********************************************************************
Initial conditions from MADX model of PSB extraction to BT lines
*********************************************************************/

betx0              =       9.0604931434e+00 ;
bety0              =       5.5285915313e+00 ;
alfx0              =       1.2446061289e+00 ;
alfy0              =       7.0620768240e-01 ;
dx0                =      -3.5518937489e+00 ;
dy0                =      -1.4967713372e-01 ;
dpx0               =       1.3958741646e-01 ;
dpy0               =       6.8241580408e-02 ;
x0                 =       0.0000000000e+00 ;
px0                =       0.0000000000e+00 ;
