/*********************************************************************
Initial conditions for DE from Pavel's  private model
*********************************************************************/

betx0              =           5.185 ; 
bety0              =           8.264 ; 
alfx0              =           -0.608 ; 
alfy0              =           2.040 ; 
dx0                =           0.034/beta ;
dy0                =           0.000000e+00 ;
dpx0               =           -0.038/beta ;
dpy0               =           0.000000e+00 ;
x0                 =           0.000000e+00 ;
px0                =           0.000000e+00 ;




