/*********************************************************************
Initial conditions from MADX model of PSB extraction to BT lines
*********************************************************************/

betx0              =       7.9656248850e+00 ;
bety0              =       2.8005365990e+01 ;
alfx0              =      -5.9581061934e-02 ;
alfy0              =      -4.3029355290e-01 ;
dx0                =       2.2504056577e+00 ;
dy0                =       4.8869303369e-01 ;
dpx0               =      -2.7650489301e-02 ;
dpy0               =      -8.6732331775e-03 ;
x0                 =       0.0000000000e+00 ;
px0                =       0.0000000000e+00 ;
