/*********************************************************************
Initial conditions from MADX model of PSB extraction to BT lines
*********************************************************************/

betx0              =       4.4153987423e+00 ;
bety0              =       6.4437990919e-01 ;
alfx0              =       2.0820921825e+00 ;
alfy0              =      -5.6330861584e-01 ;
dx0                =      -3.9110836782e-01 ;
dy0                =       6.7088179853e-02 ;
dpx0               =       1.0174269012e+00 ;
dpy0               =       1.6962956943e-01 ;
x0                 =       3.4108960324e-03 ;
px0                =      -2.4331852202e-03 ;
