/*********************************************************************
Initial conditions for LNS from estimate of source acceptance and 50 mm mrad emittance
*********************************************************************/

betx0              =           0.09 ; ! 12.3483 ;
bety0              =           0.09 ; ! 12.3483 ;
alfx0              =           0.000000e+00 ; !-9.06877 ;
alfy0              =           0.000000e+00 ; !-9.06877 ;
dx0                =           0.000000e+00 ;
dy0                =           0.000000e+00 ;
dpx0               =           0.000000e+00 ;
dpy0               =           0.000000e+00 ;
x0                 =           0.000000e+00 ;
px0                =           0.000000e+00 ;

