/*********************************************************************************
Initial conditions from MADX stitched model of SPS => sps_ti2 for q26 optics
*********************************************************************************/

betx0              =         2.03140428e+01 ;
bety0              =         1.02862801e+02 ;
alfx0              =        -5.28220872e-01 ;
alfy0              =         2.31703071e+00 ;
dx0                =        -1.66751263e-01 ;
dy0                =         0.00000000e+00 ;
x0                 =         1.55904027e-02 ;
y0                 =         0.00000000e+00 ;
px0                =        -1.05320712e-05 ;
py0                =         0.00000000e+00 ;
dpx0               =         1.45094226e-02 ;
dpy0               =         0.00000000e+00 ;
