/*********************************************************************************
Initial conditions from MADX stitched model of SPS => sps_ti2 for q20 optics
*********************************************************************************/

betx0              =         3.05826415e+01 ;
bety0              =         1.04726099e+02 ;
alfx0              =        -5.99616458e-01 ;
alfy0              =         1.88643366e+00 ;
dx0                =        -3.06097221e-01 ;
dy0                =         0.00000000e+00 ;
x0                 =         2.71179757e-02 ;
y0                 =         0.00000000e+00 ;
px0                =         4.75166372e-04 ;
py0                =         0.00000000e+00 ;
dpx0               =         7.31892020e-03 ;
dpy0               =         0.00000000e+00 ;
