/*********************************************************************************
Initial conditions from MADX stitched model of PS => ps_tt2tt10 for q20 optics
*********************************************************************************/

betx0              =       2.3343947558e+01 ;
bety0              =       1.2443497499e+01 ;
alfx0              =       1.0855089216e-01 ;
alfy0              =       1.2015644080e-01 ;
dx0                =       3.3227882309e+00 ;
dy0                =      -0.0000000000e+00 ;
x0                 =      -4.2604184129e-12 ;
y0                 =       0.0000000000e+00 ;
px0                =      -3.9201434950e-14 ;
py0                =       0.0000000000e+00 ;
dpx0               =      -1.3583188191e-02 ;
dpy0               =      -0.0000000000e+00 ;
