/*********************************************************************
Initial conditions from MADX model of PSB extraction to BT lines
*********************************************************************/

betx0              =       5.6413511249e+00 ;
bety0              =       4.2425474757e+00 ;
alfx0              =      -5.9930280051e-02 ;
alfy0              =      -8.2779922799e-02 ;
dx0                =      -1.5034554136e+00 ;
dy0                =       0.0000000000e+00 ;
dpx0               =       4.4228034603e-02 ;
dpy0               =       0.0000000000e+00 ;
x0                 =       0.0000000000e+00 ;
px0                =       0.0000000000e+00 ;
