/*********************************************************************
Initial conditions from MADX model of PSB extraction to BT lines
*********************************************************************/

betx0              =       1.1262907907e+01 ;
bety0              =       2.2235679152e+01 ;
alfx0              =      -1.0647506576e-01 ;
alfy0              =      -6.9418392349e-02 ;
dx0                =       2.5447794746e+00 ;
dy0                =       5.6272578695e-01 ;
dpx0               =       6.4833849595e-04 ;
dpy0               =       1.3662118166e-02 ;
x0                 =       0.0000000000e+00 ;
px0                =       0.0000000000e+00 ;
