/*********************************************************************
Initial conditions from MADX model of PSB extraction to BT lines
*********************************************************************/

betx0              =       1.0808757236e+01 ;
bety0              =       1.8173403400e+01 ;
alfx0              =      -4.5037109331e-01 ;
alfy0              =       7.0157202351e-03 ;
dx0                =       2.1185786006e+00 ;
dy0                =       1.7332073754e-01 ;
dpx0               =       8.0080449734e-02 ;
dpy0               =       2.7893789407e-02 ;
x0                 =       0.0000000000e+00 ;
px0                =       0.0000000000e+00 ;
