/*********************************************************************
Initial conditions from MADX model of PSB extraction to BT lines
*********************************************************************/

betx0              =       6.0256048233e+00 ;
bety0              =       2.3175404560e+01 ;
alfx0              =       6.7207660038e-01 ;
alfy0              =      -6.1204380877e-01 ;
dx0                =       1.5797430368e+00 ;
dy0                =       1.8517147312e-01 ;
dpx0               =      -2.0838470057e-01 ;
dpy0               =       2.9789838475e-02 ;
x0                 =       0.0000000000e+00 ;
px0                =       0.0000000000e+00 ;
