/*********************************************************************
Initial conditions from MADX stitched model of PS extraction to nTOF
*********************************************************************/

betx0                 =   4.99920392 ;
bety0                 =   5.00038080 ;
alfx0                 =  -0.00000000 ;
alfy0                 =  -0.00000000 ;
dx0                   =   0.00147023 ;
dy0                   =   0.00000000 ;
dpx0                  =  -0.00000000 ;
dpy0                  =   0.00000000 ;
